// Jest Snapshot v1, https://goo.gl/fbAQLP

exports[`renders a weather cell and matches snapshot 1`] = `
<section
  className="weather-card weather-card--day0"
>
  <h2>
    Today
  </h2>
  <div
    className="weather-card__weather-day0"
  >
    <div
      className="weather-card__icon--big"
    >
      <svg>
        01d.svg
      </svg>
    </div>
    <div>
      <div
        className="weather-card__temperature"
      >
        20
        °
      </div>
      <span
        className="weather-card__status"
      >
        Cloudy
      </span>
    </div>
  </div>
</section>
`;
